%YAML 1.1
%TAG !u! tag:unity3d.com,2011:
--- !u!1045 &1
EditorBuildSettings:
  m_ObjectHideFlags: 0
  serializedVersion: 2
  m_Scenes:
  - enabled: 0
    path: 
    guid: 00000000000000000000000000000000
  - enabled: 1
    path: Assets/Scenes/Title_Screen.unity
    guid: b42bb999d36e1c44db6fa9cf7af96f72
  - enabled: 1
    path: Assets/Scenes/Player_Selection.unity
    guid: 1750f6772f5752341ab1169df3a7bd8a
  - enabled: 1
    path: Assets/Scenes/Main.unity
    guid: 9949144ffdb1f8c4da63c1cca244da68
  m_configObjects: {}
