%YAML 1.1
%TAG !u! tag:unity3d.com,2011:
--- !u!74 &7400000
AnimationClip:
  m_ObjectHideFlags: 0
  m_CorrespondingSourceObject: {fileID: 0}
  m_PrefabInstance: {fileID: 0}
  m_PrefabAsset: {fileID: 0}
  m_Name: Anim_BernardLHermite04_Size05_Walking
  serializedVersion: 6
  m_Legacy: 0
  m_Compressed: 0
  m_UseHighQualityCurve: 1
  m_RotationCurves: []
  m_CompressedRotationCurves: []
  m_EulerCurves: []
  m_PositionCurves: []
  m_ScaleCurves: []
  m_FloatCurves: []
  m_PPtrCurves:
  - curve:
    - time: 0
      value: {fileID: 2100000, guid: fa63f26321ece6b4e9274daad84e83fb, type: 2}
    - time: 0.16666667
      value: {fileID: 2100000, guid: 6c2a69422b65e5142af1640e0d84f87d, type: 2}
    - time: 0.33333334
      value: {fileID: 2100000, guid: 070cb6bd4f6d42f47b3c8610d225b01b, type: 2}
    - time: 0.5
      value: {fileID: 2100000, guid: 5f2d4f39974df904d8adca6e934a23a8, type: 2}
    - time: 0.6666667
      value: {fileID: 2100000, guid: 89fb152bf1fcc35489e9e6b094124d9b, type: 2}
    - time: 0.8333333
      value: {fileID: 2100000, guid: 591e1ad98ec85aa4ebe517183361748c, type: 2}
    attribute: m_Materials.Array.data[0]
    path: Beber
    classID: 23
    script: {fileID: 0}
  m_SampleRate: 30
  m_WrapMode: 0
  m_Bounds:
    m_Center: {x: 0, y: 0, z: 0}
    m_Extent: {x: 0, y: 0, z: 0}
  m_ClipBindingConstant:
    genericBindings:
    - serializedVersion: 2
      path: 87780281
      attribute: 0
      script: {fileID: 0}
      typeID: 23
      customType: 21
      isPPtrCurve: 1
    pptrCurveMapping:
    - {fileID: 2100000, guid: fa63f26321ece6b4e9274daad84e83fb, type: 2}
    - {fileID: 2100000, guid: 6c2a69422b65e5142af1640e0d84f87d, type: 2}
    - {fileID: 2100000, guid: 070cb6bd4f6d42f47b3c8610d225b01b, type: 2}
    - {fileID: 2100000, guid: 5f2d4f39974df904d8adca6e934a23a8, type: 2}
    - {fileID: 2100000, guid: 89fb152bf1fcc35489e9e6b094124d9b, type: 2}
    - {fileID: 2100000, guid: 591e1ad98ec85aa4ebe517183361748c, type: 2}
  m_AnimationClipSettings:
    serializedVersion: 2
    m_AdditiveReferencePoseClip: {fileID: 0}
    m_AdditiveReferencePoseTime: 0
    m_StartTime: 0
    m_StopTime: 0.8666667
    m_OrientationOffsetY: 0
    m_Level: 0
    m_CycleOffset: 0
    m_HasAdditiveReferencePose: 0
    m_LoopTime: 1
    m_LoopBlend: 0
    m_LoopBlendOrientation: 0
    m_LoopBlendPositionY: 0
    m_LoopBlendPositionXZ: 0
    m_KeepOriginalOrientation: 0
    m_KeepOriginalPositionY: 1
    m_KeepOriginalPositionXZ: 0
    m_HeightFromFeet: 0
    m_Mirror: 0
  m_EditorCurves: []
  m_EulerEditorCurves: []
  m_HasGenericRootTransform: 0
  m_HasMotionFloatCurves: 0
  m_Events: []
