%YAML 1.1
%TAG !u! tag:unity3d.com,2011:
--- !u!74 &7400000
AnimationClip:
  m_ObjectHideFlags: 0
  m_CorrespondingSourceObject: {fileID: 0}
  m_PrefabInstance: {fileID: 0}
  m_PrefabAsset: {fileID: 0}
  m_Name: Anim_BernardLHermite02_Size02_Walking
  serializedVersion: 6
  m_Legacy: 0
  m_Compressed: 0
  m_UseHighQualityCurve: 1
  m_RotationCurves: []
  m_CompressedRotationCurves: []
  m_EulerCurves: []
  m_PositionCurves: []
  m_ScaleCurves: []
  m_FloatCurves: []
  m_PPtrCurves:
  - curve:
    - time: 0
      value: {fileID: 2100000, guid: 869f90aec4c1afa48bd1fc0cfada7e96, type: 2}
    - time: 0.16666667
      value: {fileID: 2100000, guid: 5bfa1e31363cae34aa38b8cef524fc3a, type: 2}
    - time: 0.33333334
      value: {fileID: 2100000, guid: bf3297ff62a30974d99ca289481a49bb, type: 2}
    - time: 0.5
      value: {fileID: 2100000, guid: 6c40f229b2f1f564e94d3d2204353b61, type: 2}
    - time: 0.6666667
      value: {fileID: 2100000, guid: ad812abc8e5b45e4da00b320d4418c4e, type: 2}
    - time: 0.8333333
      value: {fileID: 2100000, guid: e77eb22a181b53c4c9774ba004f95ef7, type: 2}
    attribute: m_Materials.Array.data[0]
    path: Beber
    classID: 23
    script: {fileID: 0}
  m_SampleRate: 30
  m_WrapMode: 0
  m_Bounds:
    m_Center: {x: 0, y: 0, z: 0}
    m_Extent: {x: 0, y: 0, z: 0}
  m_ClipBindingConstant:
    genericBindings:
    - serializedVersion: 2
      path: 87780281
      attribute: 0
      script: {fileID: 0}
      typeID: 23
      customType: 21
      isPPtrCurve: 1
    pptrCurveMapping:
    - {fileID: 2100000, guid: 869f90aec4c1afa48bd1fc0cfada7e96, type: 2}
    - {fileID: 2100000, guid: 5bfa1e31363cae34aa38b8cef524fc3a, type: 2}
    - {fileID: 2100000, guid: bf3297ff62a30974d99ca289481a49bb, type: 2}
    - {fileID: 2100000, guid: 6c40f229b2f1f564e94d3d2204353b61, type: 2}
    - {fileID: 2100000, guid: ad812abc8e5b45e4da00b320d4418c4e, type: 2}
    - {fileID: 2100000, guid: e77eb22a181b53c4c9774ba004f95ef7, type: 2}
  m_AnimationClipSettings:
    serializedVersion: 2
    m_AdditiveReferencePoseClip: {fileID: 0}
    m_AdditiveReferencePoseTime: 0
    m_StartTime: 0
    m_StopTime: 0.8666667
    m_OrientationOffsetY: 0
    m_Level: 0
    m_CycleOffset: 0
    m_HasAdditiveReferencePose: 0
    m_LoopTime: 1
    m_LoopBlend: 0
    m_LoopBlendOrientation: 0
    m_LoopBlendPositionY: 0
    m_LoopBlendPositionXZ: 0
    m_KeepOriginalOrientation: 0
    m_KeepOriginalPositionY: 1
    m_KeepOriginalPositionXZ: 0
    m_HeightFromFeet: 0
    m_Mirror: 0
  m_EditorCurves: []
  m_EulerEditorCurves: []
  m_HasGenericRootTransform: 0
  m_HasMotionFloatCurves: 0
  m_Events: []
